{
  "collection": "@nestjs/schematics",
  "sourceRoot": "src",
  "projects": {
    "common": {
      "type": "library",
      "root": "libs/common",
      "entryFile": "index",
      "sourceRoot": "libs/common/src",
      "compilerOptions": {
        "tsConfigPath": "libs/common/tsconfig.lib.json"
      }
    },
    "message": {
      "type": "library",
      "root": "libs/message",
      "entryFile": "index",
      "sourceRoot": "libs/message/src",
      "compilerOptions": {
        "tsConfigPath": "libs/message/tsconfig.lib.json"
      }
    },
    "s3-upload": {
      "type": "library",
      "root": "libs/s3-upload",
      "entryFile": "index",
      "sourceRoot": "libs/s3-upload/src",
      "compilerOptions": {
        "tsConfigPath": "libs/s3-upload/tsconfig.lib.json"
      }
    },
    "microsoft-teams-webhook": {
      "type": "library",
      "root": "libs/microsoft-teams-webhook",
      "entryFile": "index",
      "sourceRoot": "libs/microsoft-teams-webhook/src",
      "compilerOptions": {
        "tsConfigPath": "libs/microsoft-teams-webhook/tsconfig.lib.json"
      }
    }
  },
  "compilerOptions": {
    "webpack": false
  }
}